…
Notamos que las columnas que corresponden a preguntas de la encuesta vienen en formato `<bls+lbl>`, un formato propio del paquete `{haven}`, que combina los valores numéricos de las variables con las etiquetas de sus categorías de respuesta.

Cargar la base de datos complementaria que contiene columnas de factor de expansión, comuna y provincia:

``` r
casen_comunas <- read_dta("Base de datos provincia y comuna Casen 2022 STATA.dta")
```

Revisar contenidos del segundo archivo:

``` r
casen_comunas
```

    # A tibble: 202,231 × 6
           folio id_persona provincia     comuna          expp  expc
           <dbl>      <dbl> <dbl+lbl>     <dbl+lbl>      <dbl> <dbl>
     1 100090101          1 163 [Punilla] 16303 [Ñiquén]    51    52
     2 100090101          2 163 [Punilla] 16303 [Ñiquén]    50    53
     3 100090101          3 163 [Punilla] 16303 [Ñiquén]    51    52
     4 100090201          1 163 [Punilla] 16303 [Ñiquén]    51    52
     5 100090201          2 163 [Punilla] 16303 [Ñiquén]    50    52
     6 100090201          3 163 [Punilla] 16303 [Ñiquén]    51    52
     7 100090201          4 163 [Punilla] 16303 [Ñiquén]    51    52
     8 100090301          1 163 [Punilla] 16303 [Ñiquén]    51    52
     9 100090301          2 163 [Punilla] 16303 [Ñiquén]    51    52
    10 100090301          3 163 [Punilla] 16303 [Ñiquén]    51    52
    # ℹ 202,221 more rows
…
Contar la frecuencia de una variable a nivel regional, sin factor de expansión (inexacto):

``` r
casen_2 |> 
  group_by(region) |> 
  count(pobreza) |> 
  mutate(p = round(n/sum(n), 2)) |> 
  mutate(porcentaje = percent(p))
```

    # A tibble: 63 × 5
    # Groups:   region [16]
       region                    pobreza                     n     p porcentaje
       <dbl+lbl>                 <dbl+lbl>               <int> <dbl> <chr>     
     1 1 [Región de Tarapacá]     1 [Pobreza extrema]      300  0.03 3%        
     2 1 [Región de Tarapacá]     2 [Pobreza no extrema]   589  0.07 7%        
     3 1 [Región de Tarapacá]     3 [No pobreza]          7798  0.9  90%       
     4 1 [Región de Tarapacá]    NA                          4  0    0%        
     5 2 [Región de Antofagasta]  1 [Pobreza extrema]      265  0.03 3%        
     6 2 [Región de Antofagasta]  2 [Pobreza no extrema]   462  0.05 5%        
     7 2 [Región de Antofagasta]  3 [No pobreza]          8300  0.92 92%       
     8 2 [Región de Antofagasta] NA                          2  0    0%        
     9 3 [Región de Atacama]      1 [Pobreza extrema]      250  0.03 3%        
    10 3 [Región de Atacama]      2 [Pobreza no extrema]   507  0.06 6%        
    # ℹ 53 more rows

Contar la frecuencia de una variable a nivel comunal, sin factor de expansión (inexacto):

``` r
casen_2 |> 
  filter(region == 13) |> 
  select(-region) |> 
  group_by(comuna) |> 
  count(pobreza) |> 
  mutate(p = round(n/sum(n), 2)) |> 
  mutate(porcentaje = percent(p))
```

    # A tibble: 155 × 5
    # Groups:   comuna [52]
       comuna              pobreza                    n     p porcentaje
       <dbl+lbl>           <dbl+lbl>              <int> <dbl> <chr>     
     1 13101 [Santiago]    1 [Pobreza extrema]       50  0.03 3%        
     2 13101 [Santiago]    2 [Pobreza no extrema]    58  0.03 3%        
     3 13101 [Santiago]    3 [No pobreza]          1685  0.94 94%       
     4 13102 [Cerrillos]   1 [Pobreza extrema]       17  0.04 4%        
     5 13102 [Cerrillos]   2 [Pobreza no extrema]     8  0.02 2%        
     6 13102 [Cerrillos]   3 [No pobreza]           376  0.94 94%       
     7 13103 [Cerro Navia] 1 [Pobreza extrema]        6  0.01 1%        
     8 13103 [Cerro Navia] 2 [Pobreza no extrema]     7  0.01 1%        
     9 13103 [Cerro Navia] 3 [No pobreza]           542  0.98 98%       
    10 13104 [Conchalí]    1 [Pobreza extrema]       21  0.04 4%        
    # ℹ 145 more rows
…
Realizar expansión de las filas de la base filtrada. Nótese la cantidad de observaciones que resulta de este procedimiento.

``` r
library(tidyr)

casen_antofagasta_exp <- casen_antofagasta |> 
  # aplicar factor de expansión
  uncount(expc)

casen_antofagasta_exp
```

    # A tibble: 710,691 × 6
       region                    comuna        pobreza         expr expr_osig  expp
       <dbl+lbl>                 <dbl+lbl>     <dbl+lbl>      <dbl>     <dbl> <dbl>
     1 2 [Región de Antofagasta] 2201 [Calama] 3 [No pobreza]    67        81    68
     2 2 [Región de Antofagasta] 2201 [Calama] 3 [No pobreza]    67        81    68
     3 2 [Región de Antofagasta] 2201 [Calama] 3 [No pobreza]    67        81    68
     4 2 [Región de Antofagasta] 2201 [Calama] 3 [No pobreza]    67        81    68
     5 2 [Región de Antofagasta] 2201 [Calama] 3 [No pobreza]    67        81    68
     6 2 [Región de Antofagasta] 2201 [Calama] 3 [No pobreza]    67        81    68
     7 2 [Región de Antofagasta] 2201 [Calama] 3 [No pobreza]    67        81    68
     8 2 [Región de Antofagasta] 2201 [Calama] 3 [No pobreza]    67        81    68
     9 2 [Región de Antofagasta] 2201 [Calama] 3 [No pobreza]    67        81    68
    10 2 [Región de Antofagasta] 2201 [Calama] 3 [No pobreza]    67        81    68
    # ℹ 710,681 more rows
…
Obtener frecuencia y porcentaje de una variable de la Casen, a nivel comunal, aplicando factor de expansión:

``` r
casen_antofagasta_exp |> 
  # agrupar por comuna
  group_by(region, comuna) |> 
  # contar variable
  count(pobreza) |> 
  # calcular porcentaje
  mutate(p = n/sum(n)) |> 
  mutate(porcentaje = percent(p))
```

    # A tibble: 24 × 6
    # Groups:   region, comuna [8]
       region                    comuna            pobreza      n       p porcentaje
       <dbl+lbl>                 <dbl+lbl>         <dbl+l>  <int>   <dbl> <chr>     
     1 2 [Región de Antofagasta] 2101 [Antofagast… 1 [Pob…  12108 0.0276  2.8%      
     2 2 [Región de Antofagasta] 2101 [Antofagast… 2 [Pob…  18767 0.0428  4.3%      
     3 2 [Región de Antofagasta] 2101 [Antofagast… 3 [No … 408071 0.930   93.0%     
     4 2 [Región de Antofagasta] 2102 [Mejillones] 1 [Pob…     95 0.00613 0.6%      
     5 2 [Región de Antofagasta] 2102 [Mejillones] 2 [Pob…    449 0.0290  2.9%      
     6 2 [Región de Antofagasta] 2102 [Mejillones] 3 [No …  14955 0.965   96.5%     
     7 2 [Región de Antofagasta] 2103 [Sierra Gor… 1 [Pob…     39 0.0218  2.2%      
     8 2 [Región de Antofagasta] 2103 [Sierra Gor… 2 [Pob…     65 0.0364  3.6%      
     9 2 [Región de Antofagasta] 2103 [Sierra Gor… 3 [No …   1684 0.942   94.2%     
    10 2 [Región de Antofagasta] 2104 [Taltal]     1 [Pob…   1045 0.0752  7.5%      
    # ℹ 14 more rows
…
``` r
casen_svy |> 
  filter(region == 13) |> 
  group_by(comuna, pobreza) |> 
  summarize(n = survey_total(),
            p = survey_mean()) |> 
  select(pobreza, n, p) |> 
  mutate(porcentaje = percent(p, accuracy = 0.01)) |> 
  print(n = 15)
```

    Adding missing grouping variables: `comuna`

    # A tibble: 155 × 5
    # Groups:   comuna [52]
       comuna              pobreza                     n      p porcentaje
       <dbl+lbl>           <dbl+lbl>               <dbl>  <dbl> <chr>     
     1 13101 [Santiago]    1 [Pobreza extrema]     12501 0.0253 2.53%     
     2 13101 [Santiago]    2 [Pobreza no extrema]  17213 0.0348 3.48%     
     3 13101 [Santiago]    3 [No pobreza]         465004 0.940  93.99%    
     4 13102 [Cerrillos]   1 [Pobreza extrema]      3232 0.0406 4.06%     
     5 13102 [Cerrillos]   2 [Pobreza no extrema]   1336 0.0168 1.68%     
     6 13102 [Cerrillos]   3 [No pobreza]          75048 0.943  94.26%    
     7 13103 [Cerro Navia] 1 [Pobreza extrema]      1227 0.0116 1.16%     
     8 13103 [Cerro Navia] 2 [Pobreza no extrema]   1442 0.0137 1.37%     
     9 13103 [Cerro Navia] 3 [No pobreza]         102811 0.975  97.47%    
    10 13104 [Conchalí]    1 [Pobreza extrema]      4409 0.0395 3.95%     
    11 13104 [Conchalí]    2 [Pobreza no extrema]   3544 0.0318 3.18%     
    12 13104 [Conchalí]    3 [No pobreza]         103635 0.929  92.87%    
    13 13105 [El Bosque]   1 [Pobreza extrema]      3998 0.0225 2.25%     
    14 13105 [El Bosque]   2 [Pobreza no extrema]   8053 0.0454 4.54%     
    15 13105 [El Bosque]   3 [No pobreza]         165284 0.932  93.20%    
    # ℹ 140 more rows
…
casen_svy |> 
  filter(region == 13) |> 
  # crear variable dicotómica
  mutate(pobreza_2 = ifelse(pobreza %in% c(1, 2), "pobre", "no pobre")) |> 
  # calcular
  group_by(comuna, pobreza_2) |> 
  summarize(n = survey_total(),
            p = survey_mean()) |> 
  select(pobreza_2, comuna, n, p) |>
  mutate(porcentaje = percent(p, accuracy = 0.01)) |> 
  filter(pobreza_2 == "pobre") |> 
  print(n = 15)
```

    # A tibble: 52 × 5
    # Groups:   comuna [52]
       pobreza_2 comuna                       n       p porcentaje
       <chr>     <dbl+lbl>                <dbl>   <dbl> <chr>     
     1 pobre     13101 [Santiago]         29714 0.0601  6.01%     
     2 pobre     13102 [Cerrillos]         4568 0.0574  5.74%     
     3 pobre     13103 [Cerro Navia]       2669 0.0253  2.53%     
     4 pobre     13104 [Conchalí]          7953 0.0713  7.13%     
     5 pobre     13105 [El Bosque]        12051 0.0680  6.80%     
     6 pobre     13106 [Estación Central]  9481 0.0454  4.54%     
     7 pobre     13107 [Huechuraba]        3510 0.0322  3.22%     
     8 pobre     13108 [Independencia]    12977 0.0703  7.03%     
     9 pobre     13109 [La Cisterna]       8309 0.0651  6.51%     
    10 pobre     13110 [La Florida]       13691 0.0289  2.89%     
    11 pobre     13111 [La Granja]         9140 0.0793  7.93%     
    12 pobre     13112 [La Pintana]       32563 0.135   13.46%    
    13 pobre     13113 [La Reina]          2027 0.0159  1.59%     
    14 pobre     13114 [Las Condes]        1720 0.00574 0.57%     
    15 pobre     13115 [Lo Barnechea]       705 0.00738 0.74%     
    # ℹ 37 more rows

Realizar conteos obteniendo intervalos de confianza:

``` r
casen_svy |> 
  filter(region == 2) |> 
  group_by(region, comuna, pobreza) |> 
  summarize(n = survey_total(),
            p = survey_mean(vartype = c("se", "ci")))
```

    # A tibble: 24 × 9
    # Groups:   region, comuna [8]
       region       comuna     pobreza      n   n_se       p    p_se   p_low   p_upp
       <dbl+lbl>    <dbl+lbl>  <dbl+l>  <dbl>  <dbl>   <dbl>   <dbl>   <dbl>   <dbl>
     1 2 [Región d… 2101 [Ant… 1 [Pob…  12195 2.83e3 0.0280  0.00455 0.0190  0.0370 
     2 2 [Región d… 2101 [Ant… 2 [Pob…  18947 5.09e3 0.0435  0.00778 0.0281  0.0589 
     3 2 [Región d… 2101 [Ant… 3 [No … 404323 1.01e5 0.928   0.0120  0.905   0.952  
     4 2 [Región d… 2102 [Mej… 1 [Pob…     68 1.37e1 0.00485 0.00185 0.00119 0.00851
     5 2 [Región d… 2102 [Mej… 2 [Pob…    409 1.18e2 0.0292  0.00679 0.0157  0.0426 
     6 2 [Región d… 2102 [Mej… 3 [No …  13552 4.51e3 0.966   0.00791 0.950   0.982  
     7 2 [Región d… 2103 [Sie… 1 [Pob…     22 1.04e1 0.0173  0.00400 0.00936 0.0252 
     8 2 [Región d… 2103 [Sie… 2 [Pob…     44 1.56e1 0.0346  0.00678 0.0212  0.0480 
     9 2 [Región d… 2103 [Sie… 3 [No …   1207 4.23e2 0.948   0.00761 0.933   0.963  
    10 2 [Región d… 2104 [Tal… 1 [Pob…   1239 2.45e2 0.0768  0.0169  0.0433  0.110  
    # ℹ 14 more rows

Repetir el ejemplo, pero utilizando otra variable:

``` r
casen_svy |> 
  filter(region == 2) |> 
  group_by(region, comuna, v4) |> 
  summarize(n = survey_total(),
            p = survey_mean(vartype = c("se", "ci")))
```

    # A tibble: 43 × 9
    # Groups:   region, comuna [8]
       region      comuna     v4           n   n_se       p    p_se    p_low   p_upp
       <dbl+lbl>   <dbl+lbl>  <dbl+l>  <dbl>  <dbl>   <dbl>   <dbl>    <dbl>   <dbl>
     1 2 [Región … 2101 [Ant… 1 [1. …  80318 22990. 0.184   2.70e-2  1.31e-1 0.238  
     2 2 [Región … 2101 [Ant… 2 [2. … 321605 80216. 0.739   2.16e-2  6.96e-1 0.781  
     3 2 [Región … 2101 [Ant… 3 [3. …   3208   779. 0.00737 7.58e-4  5.87e-3 0.00887
     4 2 [Región … 2101 [Ant… 4 [4. …  11973  2714. 0.0275  2.89e-3  2.18e-2 0.0332 
     5 2 [Región … 2101 [Ant… 5 [5. …  17714  5218. 0.0407  8.21e-3  2.44e-2 0.0569 
     6 2 [Región … 2101 [Ant… 6 [6. …    647   212. 0.00149 4.79e-4  5.37e-4 0.00243
     7 2 [Región … 2102 [Mej… 1 [1. …   1160   203. 0.0827  1.61e-2  5.09e-2 0.114  
     8 2 [Región … 2102 [Mej… 2 [2. …  12285  4296. 0.876   2.17e-2  8.33e-1 0.919  
     9 2 [Región … 2102 [Mej… 5 [5. …    548   140. 0.0391  6.54e-3  2.61e-2 0.0520 
    10 2 [Región … 2102 [Mej… 6 [6. …     36    36  0.00257 2.68e-3 -2.73e-3 0.00787
    # ℹ 33 more rows
…
