Crea un mapa de Chile y visualiza datos comunales y regionales con mapas en R | Blog
…
Mapa de Chile por comunas

El paquete 
{chilemapas}, desarrollado por 
Mauricio Vargas, ofrece una colección de mapas terrestres de Chile con topología simplificada. Simplemente llamando el objeto mapa_comunas obtenemos un dataframe con la información geográfica de cada comuna del país.

mapa_comunas <- chilemapas::mapa_comunas

mapa_comunas

# A tibble: 345 × 4
   codigo_comuna codigo_provincia codigo_region                         geometry
   <chr>         <chr>            <chr>                       <MULTIPOLYGON [°]>
 1 01401         014              01            (((-68.86081 -21.28512, -68.921…
 2 01403         014              01            (((-68.65113 -19.77188, -68.811…
 3 01405         014              01            (((-68.65113 -19.77188, -68.635…
 4 01402         014              01            (((-69.31789 -19.13651, -69.271…
 5 01404         014              01            (((-69.39615 -19.06125, -69.400…
 6 01107         011              01            (((-70.1095 -20.35131, -70.1243…
 7 01101         011              01            (((-70.09894 -20.08504, -70.102…
 8 02104         021              02            (((-68.98863 -25.38016, -68.987…
 9 02101         021              02            (((-70.60654 -23.43054, -70.601…
10 02201         022              02            (((-67.94302 -22.38175, -67.955…
# ℹ 335 more rows
…
library(rvest)

# dirección de wikipedia con tabla de comunas de Chile
url <- "https://es.wikipedia.org/wiki/Anexo:Comunas_de_Chile"

# obtener tabla con datos de comunas con web scraping
tabla <- session(url) |> 
  read_html() |> 
  html_table(convert = FALSE)

tabla[[1]]

# A tibble: 346 × 12
   CUT (Código Único Territori…¹ Nombre ``    Provincia Región `Superficie(km²)`
   <chr>                         <chr>  <chr> <chr>     <chr>  <chr>            
 1 15101                         Arica  ""    Arica     Arica… 4.799,4          
 2 15102                         Camar… ""    Arica     Arica… 3.927            
 3 15201                         Putre  ""    Parinaco… Arica… 5.902,5          
 4 15202                         Gener… ""    Parinaco… Arica… 2.244,4          
 5 01101                         Iquiq… ""    Iquique   Tarap… 2.242,1          
 6 01107                         Alto … ""    Iquique   Tarap… 572.9            
 7 01401                         Pozo … ""    Tamarugal Tarap… 13.765,8         
 8 01402                         Camiña ""    Tamarugal Tarap… 2.200,2          
 9 01403                         Colch… ""    Tamarugal Tarap… 4.015,6          
10 01404                         Huara  ""    Tamarugal Tarap… 10.474,6         
# ℹ 336 more rows
# ℹ abbreviated name: ¹​`CUT (Código Único Territorial)`
# ℹ 6 more variables: Población2020 <chr>, `Densidad(hab./km²)` <chr>,
#   `IDH 2005` <chr>, `IDH 2005` <chr>, Latitud <chr>, Longitud <chr>
…
datos_comunas

# A tibble: 346 × 5
   codigo_comuna nombre        region             superficie_km2 poblacion
   <chr>         <chr>         <chr>                       <dbl>     <dbl>
 1 15101         Arica         Arica y Parinacota          4799.    247552
 2 15102         Camarones     Arica y Parinacota          3927       1233
 3 15201         Putre         Arica y Parinacota          5902.      2515
 4 15202         General Lagos Arica y Parinacota          2244.       810
 5 01101         Iquique       Tarapacá                    2242.    223463
 6 01107         Alto Hospicio Tarapacá                    5729     129999
 7 01401         Pozo Almonte  Tarapacá                   13766.     17395
 8 01402         Camiña        Tarapacá                    2200.      1375
 9 01403         Colchane      Tarapacá                    4016.      1583
10 01404         Huara         Tarapacá                   10475.      3000
# ℹ 336 more rows
…
En el ejemplo, tenemos dos tablas, donde las dos tienen una misma columna con los mismos datos, y otras columnas con datos distintos. Usando left_join() podemos unir ambas tablas de datos a partir de la columna que tienen en común. Como resultado obtenemos una nueva tabla que tiene todas las columnas.

Procedemos a unir los datos con el mapa usando left_join(), especificando en el argumento by que la unión sea a partir de la columna codigo_comuna.

mapa_comunas_2 <- mapa_comunas |> 
  # adjuntar datos al mapa, coincidiendo por columna de código de comunas
  left_join(datos_comunas,
            by = join_by(codigo_comuna)) |> 
  relocate(geometry, .after = 0) # tirar geometría al final

mapa_comunas_2

# A tibble: 345 × 8
   codigo_comuna codigo_provincia codigo_region nombre     region superficie_km2
   <chr>         <chr>            <chr>         <chr>      <chr>           <dbl>
 1 01401         014              01            Pozo Almo… Tarap…         13766.
 2 01403         014              01            Colchane   Tarap…          4016.
 3 01405         014              01            Pica       Tarap…          8934.
 4 01402         014              01            Camiña     Tarap…          2200.
 5 01404         014              01            Huara      Tarap…         10475.
 6 01107         011              01            Alto Hosp… Tarap…          5729 
 7 01101         011              01            Iquique    Tarap…          2242.
 8 02104         021              02            Taltal     Antof…         20405.
 9 02101         021              02            Antofagas… Antof…         30718.
10 02201         022              02            Calama     Antof…         15597.
# ℹ 335 more rows
# ℹ 2 more variables: poblacion <dbl>, geometry <MULTIPOLYGON [°]>
…
