…
------------------------------------------------------------------------

## Tabla de estimación de pobreza por comunas

El primer ejemplo de tabla se basará en los datos de [estimaciones de pobreza comunal del año 2022, producidos por el Ministerio de Desarrollo Social](https://bidat.midesof.cl/directorio/Pobreza%20comunal/estimaciones-de-pobreza-comunal-2022) de Chile.

El primer paso será [obtener los datos oficiales.](https://bidat.midesof.cl/directorio/Pobreza%20comunal/estimaciones-de-pobreza-comunal-2022) Por conveniencia, tengo la tabla con los datos originales pre-procesada [en un repositorio sobre datos de pobreza en Chile](https://github.com/bastianolea/pobreza_chile), por lo que es posible importar los datos limpios en una sola línea de código:

``` r
pobreza <- readr::read_csv2("https://raw.githubusercontent.com/bastianolea/pobreza_chile/refs/heads/main/pobreza_comunal/datos_procesados/pobreza_comunal.csv")

pobreza
```

    # A tibble: 345 × 8
       codigo region     nombre_comuna poblacion pobreza_n pobreza_p limite_inferior
        <dbl> <chr>      <chr>             <dbl>     <dbl>     <dbl>           <dbl>
     1   1101 Tarapacá   Iquique          229674    41967.     0.183          0.162 
     2   1107 Tarapacá   Alto Hospicio    138527    45162.     0.326          0.295 
     3   1401 Tarapacá   Pozo Almonte      18290     4563.     0.250          0.199 
     4   1402 Tarapacá   Camiña             1380      308.     0.223          0.138 
     5   1403 Tarapacá   Colchane           1575      473.     0.300          0.187 
     6   1404 Tarapacá   Huara              3072     1185.     0.386          0.319 
     7   1405 Tarapacá   Pica               6184     1040.     0.168          0.119 
     8   2101 Antofagas… Antofagasta      438942    73103.     0.167          0.141 
     9   2102 Antofagas… Mejillones        15502     3078.     0.199          0.127 
    10   2103 Antofagas… Sierra Gorda       1790      295.     0.165          0.0743
    # ℹ 335 more rows
    # ℹ 1 more variable: limite_superior <dbl>
…
``` r
library(dplyr)
library(tidyr)
library(forcats)
library(glue)
library(lubridate)
library(stringr)

# cargar datos remotamente desde el repositorio
datos_elecciones <- readr::read_csv2("https://raw.githubusercontent.com/bastianolea/servel_scraping_votaciones/refs/heads/main/datos/resultados_alcaldes_2024.csv")

datos_elecciones
```

    # A tibble: 1,922 × 11
       comuna    candidato         partido lista sector votos porcentaje total_votos
       <chr>     <chr>             <chr>   <chr> <chr>  <dbl>      <dbl>       <dbl>
     1 ALGARROBO Marco Antonio Go… RN      Z - … Derec…  4250     0.276        15405
     2 ALGARROBO Veronica Maricel… IND     CAND… Indep…  2905     0.189        15405
     3 ALGARROBO Marcela Maritza … IND     CAND… Indep…  2677     0.174        15405
     4 ALGARROBO Alejandro Felipe… IND     CAND… Indep…  2425     0.157        15405
     5 ALGARROBO Carlos Orlando T… IND     CAND… Indep…  1089     0.0707       15405
     6 ALGARROBO Maria Luisa Hami… IND     CAND… Indep…   365     0.0237       15405
     7 ALGARROBO Gaston Dubournai… IND     F - … Indep…   332     0.0216       15405
     8 ALGARROBO Nulo/Blanco       <NA>    <NA>  Otros   1362     0.0884       15405
     9 ALHUE     Marcela Chamorro… IND     H - … Izqui…  3490     0.598         5841
    10 ALHUE     Jose Andres Arel… IND     CAND… Indep…  1828     0.313         5841
    # ℹ 1,912 more rows
    # ℹ 3 more variables: mesas_escrutadas <dbl>, mesas_totales <dbl>,
    #   mesas_porcentaje <dbl>
…
``` r
pib_regional_cambio <- pib_regional_long |> 
  # ordenar observaciones
  arrange(region, año) |>
  group_by(region) |> 
  # calcular cambio
  mutate(cambio = valor/lag(valor),
         cambio = 1 - cambio) |> 
  ungroup() |> 
  filter(!is.na(cambio))

pib_regional_cambio
```

    # A tibble: 80 × 4
       region                           año   valor    cambio
       <chr>                            <chr> <dbl>     <dbl>
     1 Región Metropolitana de Santiago 2019  79590 -0.00935 
     2 Región Metropolitana de Santiago 2020  72830  0.0849  
     3 Región Metropolitana de Santiago 2021  82627 -0.135   
     4 Región Metropolitana de Santiago 2022  84789 -0.0262  
     5 Región Metropolitana de Santiago 2023  84959 -0.00200 
     6 Región de Antofagasta            2019  15997  0.000874
     7 Región de Antofagasta            2020  15691  0.0191  
     8 Región de Antofagasta            2021  15574  0.00746 
     9 Región de Antofagasta            2022  15582 -0.000514
    10 Región de Antofagasta            2023  15948 -0.0235  
    # ℹ 70 more rows
…
