Tutorial: Mapa de la zona urbana de la Región Metropolitana de Santiago en R | Blog
…
Obtener un mapa regional

Primero, usaremos {chilemapas} para obtener los datos geográficos (polígonos o shapes) necesarios para producir un mapa de la Región Metropolitana:

mapa <- chilemapas::mapa_comunas |> 
  left_join(
    chilemapas::codigos_territoriales |> 
      select(matches("comuna")), 
    by = "codigo_comuna") |> 
  filter(codigo_region=="13")

print(mapa)

# A tibble: 52 × 5
   codigo_comuna codigo_provincia codigo_region                         geometry
   <chr>         <chr>            <chr>                       <MULTIPOLYGON [°]>
 1 13404         134              13            (((-70.61396 -33.73862, -70.609…
 2 13402         134              13            (((-70.61396 -33.73862, -70.623…
 3 13124         131              13            (((-70.75679 -33.38348, -70.780…
 4 13103         131              13            (((-70.72154 -33.43661, -70.724…
 5 13301         133              13            (((-70.37256 -33.10578, -70.376…
 6 13303         133              13            (((-70.72028 -32.95297, -70.723…
 7 13302         133              13            (((-70.79191 -33.17296, -70.783…
 8 13107         131              13            (((-70.59589 -33.33656, -70.590…
 9 13104         131              13            (((-70.68968 -33.36587, -70.682…
10 13504         135              13            (((-71.27576 -33.40409, -71.263…
# ℹ 42 more rows
# ℹ 1 more variable: nombre_comuna <chr>
…
Usamos la función case_when() para asignar valores ficticios sobre algunas comunas, y los visualizamos en el mapa:

mapa_datos <- mapa |> 
  # crear una variable para comunas específicas
  mutate(variable = case_when(nombre_comuna == "Paine" ~ "Bacán",
                              nombre_comuna == "Buin" ~ "Penca",
                              nombre_comuna == "La Florida" ~ "Bacán",
                              nombre_comuna == "Cerrillos" ~ "Bacán",
                              nombre_comuna == "Nunoa" ~ "Penca")) |> 
  select(nombre_comuna, codigo_comuna, variable, geometry)

print(mapa_datos)

# A tibble: 52 × 4
   nombre_comuna codigo_comuna variable                                 geometry
   <chr>         <chr>         <chr>                          <MULTIPOLYGON [°]>
 1 Paine         13404         Bacán    (((-70.61396 -33.73862, -70.60917 -33.7…
 2 Buin          13402         Penca    (((-70.61396 -33.73862, -70.62304 -33.7…
 3 Pudahuel      13124         <NA>     (((-70.75679 -33.38348, -70.78087 -33.4…
 4 Cerro Navia   13103         <NA>     (((-70.72154 -33.43661, -70.72426 -33.4…
 5 Colina        13301         <NA>     (((-70.37256 -33.10578, -70.37609 -33.1…
 6 Tiltil        13303         <NA>     (((-70.72028 -32.95297, -70.72329 -32.9…
 7 Lampa         13302         <NA>     (((-70.79191 -33.17296, -70.7833 -33.18…
 8 Huechuraba    13107         <NA>     (((-70.59589 -33.33656, -70.59023 -33.3…
 9 Conchali      13104         <NA>     (((-70.68968 -33.36587, -70.68201 -33.3…
10 Maria Pinto   13504         <NA>     (((-71.27576 -33.40409, -71.26337 -33.4…
# ℹ 42 more rows
…
print(datos_comunas)

# A tibble: 52 × 12
   codigo_comuna nombre      x     provincia region superficie_km2 poblacion2020
   <chr>         <chr>       <lgl> <chr>     <chr>           <dbl>         <dbl>
 1 13101         Santiago    NA    Santiago  Metro…            232        503147
 2 13102         Cerrillos   NA    Santiago  Metro…             21         88956
 3 13103         Cerro Navia NA    Santiago  Metro…             11        142465
 4 13104         Conchalí    NA    Santiago  Metro…            107        139195
 5 13105         El Bosque   NA    Santiago  Metro…            142        172000
 6 13106         Estación C… NA    Santiago  Metro…             15        206792
 7 13107         Huechuraba  NA    Santiago  Metro…            448        112528
 8 13108         Independen… NA    Santiago  Metro…              7        142065
 9 13109         La Cisterna NA    Santiago  Metro…             10        100434
10 13110         La Florida  NA    Santiago  Metro…            702        402433
# ℹ 42 more rows
# ℹ 5 more variables: densidad_hab_km2 <dbl>, idh_2005 <chr>, idh_2005_2 <chr>,
#   latitud <chr>, longitud <chr>
…
