…
[Los datos provienen del servicio electoral de Chile](https://github.com/bastianolea/servel_scraping_votaciones), y los nombres corresponden a 1.576 candidatos y candidatas a alcaldías.

Con el siguiente código puedes descargar los datos listos para su uso:

``` r
archivo_remoto <- "https://raw.githubusercontent.com/bastianolea/servel_scraping_votaciones/refs/heads/main/datos/resultados_alcaldes_2024.csv"

candidatos <- readr::read_csv2(archivo_remoto) |> 
  select(nombres = candidato, partido, sector) |> 
  filter(nombres != "Nulo/Blanco")

candidatos
```

    # A tibble: 1,576 × 3
       nombres                            partido sector       
       <chr>                              <chr>   <chr>        
     1 Marco Antonio Gonzalez Candia      RN      Derecha      
     2 Veronica Maricel Cueto Cueto       IND     Independiente
     3 Marcela Maritza Mansilla Potocnjak IND     Independiente
     4 Alejandro Felipe Ricotti Sepulveda IND     Independiente
     5 Carlos Orlando Tapia Aviles        IND     Independiente
     6 Maria Luisa Hamilton Velasco       IND     Independiente
     7 Gaston Dubournais Riveros          IND     Independiente
     8 Marcela Chamorro Macias            IND     Izquierda    
     9 Jose Andres Arellano Blanco        IND     Independiente
    10 Andrea Elizabeth Galvez Sepulveda  REP     Derecha      
    # ℹ 1,566 more rows
…
