…
# Cargar datos

Puedes [descargar el archivo `campamentos_chile_2024.xlsx` que usaremos en este tutorial desde este enlace](https://raw.githubusercontent.com/bastianolea/blog-r/refs/heads/master/content/blog/r_introduccion/tutorial_dplyr_campamentos/campamentos_chile_2024.xlsx). Los datos se obtuvieron desde [este repositorio.](https://github.com/bastianolea/campamentos_chile)

Cargamos los datos desde Excel usando el nombre del archivo como argumento a la función `read_excel()`:

``` r
library(readxl)

datos <- read_excel("campamentos_chile_2024.xlsx")

datos
```

    # A tibble: 1,432 × 12
       nombre     region provincia comuna cut_r cut_p   cut hogares hectareas   area
       <chr>      <chr>  <chr>     <chr>  <chr> <chr> <dbl>   <dbl>     <dbl>  <dbl>
     1 Bellavista Valpa… Valparaí… Valpa… 05    051    5101      29     1.51  10617.
     2 Buena Vis… Valpa… Valparaí… Valpa… 05    051    5101      32     1.67  11707.
     3 Los Flete… Valpa… Valparaí… Valpa… 05    051    5101      56     2.49  17465.
     4 Pueblo Hu… Valpa… Valparaí… Valpa… 05    051    5101      65     4.60  32261.
     5 Villa Ita… Valpa… Valparaí… Valpa… 05    051    5101      33     0.867  6081.
     6 Nueva Esp… Valpa… Valparaí… Valpa… 05    051    5101      17     0.399  2802.
     7 Francisco… Valpa… Valparaí… Valpa… 05    051    5101      24     2.85  19955.
     8 Manuel Ro… Valpa… Valparaí… Valpa… 05    051    5101      21     0.443  3103.
     9 Sofia 35   Valpa… Valparaí… Valpa… 05    051    5101      69     2.68  18819.
    10 Las Viñas… Valpa… Marga Ma… Villa… 05    058    5804      32     1.24   8704.
    # ℹ 1,422 more rows
    # ℹ 2 more variables: observaciones <chr>, año <chr>
…
``` r
library(dplyr)
```

Una particularidad del uso de `{dplyr}` es el uso del operador `|>`, que es operador que nos permite conectar un objeto con una o múltiples operaciones que deseamos realizarle al objeto.

Ejemplo de dos operaciones encadenadas:

``` r
datos |> 
  select(nombre, hogares, hectareas) |> 
  filter(hogares > 60)
```

    # A tibble: 352 × 3
       nombre                              hogares hectareas
       <chr>                                 <dbl>     <dbl>
     1 Pueblo Hundido                           65      4.60
     2 Sofia 35                                 69      2.68
     3 Ampliación Prat-Lomas De Peñablanca     146     15.1 
     4 Violeta Parra                           123     10.7 
     5 Mesana Alto                             128     14.5 
     6 Pampa Ilusión (Sector Las Torres)       195      7.04
     7 Parcela 11                              520     44.0 
     8 Parcela 15                              257     15.4 
     9 Campanillas                              98      6.19
    10 La Isla                                 116      4.51
    # ℹ 342 more rows

El conector significa que *a este objeto le hago esto otro;* es decir, se lee como si dijera "luego" o "entonces". En este caso: *a `datos` le selecciono columnas y le aplico un filtro.*

## Revisar

Ejecutar el nombre del objeto nos permite que sus contenidos aparezcan en la consola de R.

``` r
datos
```

    # A tibble: 1,432 × 12
       nombre     region provincia comuna cut_r cut_p   cut hogares hectareas   area
       <chr>      <chr>  <chr>     <chr>  <chr> <chr> <dbl>   <dbl>     <dbl>  <dbl>
     1 Bellavista Valpa… Valparaí… Valpa… 05    051    5101      29     1.51  10617.
     2 Buena Vis… Valpa… Valparaí… Valpa… 05    051    5101      32     1.67  11707.
     3 Los Flete… Valpa… Valparaí… Valpa… 05    051    5101      56     2.49  17465.
     4 Pueblo Hu… Valpa… Valparaí… Valpa… 05    051    5101      65     4.60  32261.
     5 Villa Ita… Valpa… Valparaí… Valpa… 05    051    5101      33     0.867  6081.
     6 Nueva Esp… Valpa… Valparaí… Valpa… 05    051    5101      17     0.399  2802.
     7 Francisco… Valpa… Valparaí… Valpa… 05    051    5101      24     2.85  19955.
     8 Manuel Ro… Valpa… Valparaí… Valpa… 05    051    5101      21     0.443  3103.
     9 Sofia 35   Valpa… Valparaí… Valpa… 05    051    5101      69     2.68  18819.
    10 Las Viñas… Valpa… Marga Ma… Villa… 05    058    5804      32     1.24   8704.
    # ℹ 1,422 more rows
    # ℹ 2 more variables: observaciones <chr>, año <chr>

Por defecto, la consola nos muestra 10 filas de la tabla. Si queremos ver más filas podemos usar la función `print()`

``` r
datos |> 
  print(n = 20)
```

    # A tibble: 1,432 × 12
       nombre     region provincia comuna cut_r cut_p   cut hogares hectareas   area
       <chr>      <chr>  <chr>     <chr>  <chr> <chr> <dbl>   <dbl>     <dbl>  <dbl>
     1 Bellavista Valpa… Valparaí… Valpa… 05    051    5101      29     1.51  1.06e4
     2 Buena Vis… Valpa… Valparaí… Valpa… 05    051    5101      32     1.67  1.17e4
     3 Los Flete… Valpa… Valparaí… Valpa… 05    051    5101      56     2.49  1.75e4
     4 Pueblo Hu… Valpa… Valparaí… Valpa… 05    051    5101      65     4.60  3.23e4
     5 Villa Ita… Valpa… Valparaí… Valpa… 05    051    5101      33     0.867 6.08e3
     6 Nueva Esp… Valpa… Valparaí… Valpa… 05    051    5101      17     0.399 2.80e3
     7 Francisco… Valpa… Valparaí… Valpa… 05    051    5101      24     2.85  2.00e4
     8 Manuel Ro… Valpa… Valparaí… Valpa… 05    051    5101      21     0.443 3.10e3
     9 Sofia 35   Valpa… Valparaí… Valpa… 05    051    5101      69     2.68  1.88e4
    10 Las Viñas… Valpa… Marga Ma… Villa… 05    058    5804      32     1.24  8.70e3
    11 Lomas De … Valpa… Marga Ma… Villa… 05    058    5804      42     3.97  2.78e4
    12 Manzana 33 Valpa… Marga Ma… Villa… 05    058    5804      37     2.19  1.53e4
    13 Ampliació… Valpa… Marga Ma… Villa… 05    058    5804     146    15.1   1.06e5
    14 Los Artes… Valpa… Valparaí… Viña … 05    051    5109      35     2.00  1.40e4
    15 La Unión … Valpa… Valparaí… Viña … 05    051    5109      20     1.33  9.30e3
    16 John Kenn… Valpa… Valparaí… Valpa… 05    051    5101      48     0.858 6.01e3
    17 Pezoa Vel… Valpa… Valparaí… Valpa… 05    051    5101      22     0.194 1.36e3
    18 Violeta P… Valpa… Valparaí… Valpa… 05    051    5101     123    10.7   7.50e4
    19 Cristo Re… Valpa… Valparaí… Valpa… 05    051    5101      53     0.862 6.04e3
    20 Loma Vist… Valpa… Valparaí… Viña … 05    051    5109      47     1.19  8.34e3
    # ℹ 1,412 more rows
    # ℹ 2 more variables: observaciones <chr>, año <chr>
…
## Ordenar

Ordenar observaciones en base a una o varias columnas

``` r
datos |> 
  arrange(nombre)
```

    # A tibble: 1,432 × 12
       nombre     region provincia comuna cut_r cut_p   cut hogares hectareas   area
       <chr>      <chr>  <chr>     <chr>  <chr> <chr> <dbl>   <dbl>     <dbl>  <dbl>
     1 05 De Abr… Ataca… Copiapó   Copia… 03    031    3101      27     1.11  8.71e3
     2 10 De Ago… Tarap… Iquique   Alto … 01    011    1107     104     1.63  1.43e4
     3 12 De Feb… Liber… Cachapoal Macha… 06    061    6108      47    12.7   8.64e4
     4 12 De May… Metro… Chacabuco Colina 13    133   13301     148     2.16  1.51e4
     5 12 De Oct… Ataca… Copiapó   Copia… 03    031    3101      12     0.791 6.22e3
     6 13 De Jun… Tarap… Tamarugal Pozo … 01    014    1401       0     0.224 1.96e3
     7 14 de feb… La Ar… Cautín    Temuco 09    091    9101       0     0.635 3.86e3
     8 15 De Feb… Ataca… Copiapó   Copia… 03    031    3101      16     0.499 3.92e3
     9 17 De Mayo Metro… Santiago  Cerro… 13    131   13103     158    15.7   1.09e5
    10 18 De Oct… Valpa… Marga Ma… Villa… 05    058    5804      18     1.15  8.04e3
    # ℹ 1,422 more rows
    # ℹ 2 more variables: observaciones <chr>, año <chr>

``` r
datos |> 
  arrange(desc(hogares))
```

    # A tibble: 1,432 × 12
       nombre     region provincia comuna cut_r cut_p   cut hogares hectareas   area
       <chr>      <chr>  <chr>     <chr>  <chr> <chr> <dbl>   <dbl>     <dbl>  <dbl>
     1 Alto Molle Tarap… Iquique   Alto … 01    011    1107    3390     130.  1.14e6
     2 Manuel Bu… Valpa… Valparaí… Viña … 05    051    5109    1647      90.2 6.33e5
     3 América I… Metro… Santiago  Cerri… 13    131   13102    1550      29.8 2.07e5
     4 Dignidad   Metro… Chacabuco Colina 13    133   13301    1004      15.8 1.10e5
     5 Milla Ant… Metro… Cordille… Puent… 13    132   13201    1001      23.0 1.59e5
     6 Comité de… Antof… Antofaga… Antof… 02    021    2101    1000      14.8 1.24e5
     7 Centinela… Valpa… San Anto… San A… 05    056    5601     833     111.  7.69e5
     8 Vista Her… Valpa… San Anto… Carta… 05    056    5603     789      64.6 4.48e5
     9 Aguas Sal… Valpa… San Anto… San A… 05    056    5601     688      45.1 3.12e5
    10 Felipe Ca… Valpa… Valparaí… Viña … 05    051    5109     669      37.0 2.59e5
    # ℹ 1,422 more rows
    # ℹ 2 more variables: observaciones <chr>, año <chr>

``` r
datos |> 
  arrange(comuna, desc(hogares)) |> 
  select(nombre, comuna, hogares)
```

    # A tibble: 1,432 × 3
       nombre             comuna        hogares
       <chr>              <chr>           <dbl>
     1 Las Quilas II      Aisén              83
     2 Las Avutardas      Aisén              16
     3 CAMINO CEMENTERIO  Aisén               8
     4 Almirante Simpson  Aisén               0
     5 Pueblo Hundido     Alto Biobío        30
     6 Pueblo Hundido     Alto Biobío        13
     7 Sector Pangue      Alto Biobío        10
     8 Alto Molle         Alto Hospicio    3390
     9 Ex Vertedero Norte Alto Hospicio     394
    10 La Pampa 2         Alto Hospicio     347
    # ℹ 1,422 more rows
…
## Seleccionar

Podemos reducir la cantidad de columnas de nuestra tabla usando `select()`. Esto puede servirnos para acotar la exploración de los datos, cuando no necesitamos ver todas las columnas al mismo tiempo.

``` r
datos |> 
  select(nombre, hectareas)
```

    # A tibble: 1,432 × 2
       nombre                  hectareas
       <chr>                       <dbl>
     1 Bellavista                  1.51 
     2 Buena Vista                 1.67 
     3 Los Fleteros                2.49 
     4 Pueblo Hundido              4.60 
     5 Villa Italia Turín          0.867
     6 Nueva Esperanza             0.399
     7 Francisco Vergara           2.85 
     8 Manuel Rodríguez            0.443
     9 Sofia 35                    2.68 
    10 Las Viñas De Irene Frei     1.24 
    # ℹ 1,422 more rows

Ante poniendo un signo menos antes del nombre de una columna podemos excluirla de nuestra tabla.

``` r
datos |> 
  select(-cut, -cut_r, -cut_p)
```

    # A tibble: 1,432 × 9
       nombre   region provincia comuna hogares hectareas   area observaciones año  
       <chr>    <chr>  <chr>     <chr>    <dbl>     <dbl>  <dbl> <chr>         <chr>
     1 Bellavi… Valpa… Valparaí… Valpa…      29     1.51  10617. CAMPAMENTO E… CATA…
     2 Buena V… Valpa… Valparaí… Valpa…      32     1.67  11707. CAMPAMENTO E… CATA…
     3 Los Fle… Valpa… Valparaí… Valpa…      56     2.49  17465. CAMPAMENTO E… CATA…
     4 Pueblo … Valpa… Valparaí… Valpa…      65     4.60  32261. CAMPAMENTO E… CATA…
     5 Villa I… Valpa… Valparaí… Valpa…      33     0.867  6081. CAMPAMENTO E… CATA…
     6 Nueva E… Valpa… Valparaí… Valpa…      17     0.399  2802. CAMPAMENTO E… CATA…
     7 Francis… Valpa… Valparaí… Valpa…      24     2.85  19955. CAMPAMENTO E… CATA…
     8 Manuel … Valpa… Valparaí… Valpa…      21     0.443  3103. CAMPAMENTO E… CATA…
     9 Sofia 35 Valpa… Valparaí… Valpa…      69     2.68  18819. CAMPAMENTO E… CATA…
    10 Las Viñ… Valpa… Marga Ma… Villa…      32     1.24   8704. CAMPAMENTO E… CATA…
    # ℹ 1,422 more rows

Recordemos que, hasta que no asignemos estas operaciones a un nuevo objeto, no estamos modificando nuestros datos realmente, sino que solamente estamos aplicando operaciones sobre los datos de una forma no destructiva, como exploración o a modo de prueba.

La función selecta acepta diversas formas de poder seleccionar o de seleccionar variables en base a sus nombres.

Excluir columnas que incluyan cierto texto dentro de sus nombres:

``` r
datos |> 
  select(-contains("cut"))
```

    # A tibble: 1,432 × 9
       nombre   region provincia comuna hogares hectareas   area observaciones año  
       <chr>    <chr>  <chr>     <chr>    <dbl>     <dbl>  <dbl> <chr>         <chr>
     1 Bellavi… Valpa… Valparaí… Valpa…      29     1.51  10617. CAMPAMENTO E… CATA…
     2 Buena V… Valpa… Valparaí… Valpa…      32     1.67  11707. CAMPAMENTO E… CATA…
     3 Los Fle… Valpa… Valparaí… Valpa…      56     2.49  17465. CAMPAMENTO E… CATA…
     4 Pueblo … Valpa… Valparaí… Valpa…      65     4.60  32261. CAMPAMENTO E… CATA…
     5 Villa I… Valpa… Valparaí… Valpa…      33     0.867  6081. CAMPAMENTO E… CATA…
     6 Nueva E… Valpa… Valparaí… Valpa…      17     0.399  2802. CAMPAMENTO E… CATA…
     7 Francis… Valpa… Valparaí… Valpa…      24     2.85  19955. CAMPAMENTO E… CATA…
     8 Manuel … Valpa… Valparaí… Valpa…      21     0.443  3103. CAMPAMENTO E… CATA…
     9 Sofia 35 Valpa… Valparaí… Valpa…      69     2.68  18819. CAMPAMENTO E… CATA…
    10 Las Viñ… Valpa… Marga Ma… Villa…      32     1.24   8704. CAMPAMENTO E… CATA…
    # ℹ 1,422 more rows

Seleccionar columnas que empiecen con cierto texto:

``` r
datos |> 
  select(starts_with("com"))
```

    # A tibble: 1,432 × 1
       comuna       
       <chr>        
     1 Valparaíso   
     2 Valparaíso   
     3 Valparaíso   
     4 Valparaíso   
     5 Valparaíso   
     6 Valparaíso   
     7 Valparaíso   
     8 Valparaíso   
     9 Valparaíso   
    10 Villa Alemana
    # ℹ 1,422 more rows

Seleccionar comunas que terminen con un texto determinado:

``` r
datos |> 
  select(ends_with("a"))
```

    # A tibble: 1,432 × 3
       provincia   comuna          area
       <chr>       <chr>          <dbl>
     1 Valparaíso  Valparaíso    10617.
     2 Valparaíso  Valparaíso    11707.
     3 Valparaíso  Valparaíso    17465.
     4 Valparaíso  Valparaíso    32261.
     5 Valparaíso  Valparaíso     6081.
     6 Valparaíso  Valparaíso     2802.
     7 Valparaíso  Valparaíso    19955.
     8 Valparaíso  Valparaíso     3103.
     9 Valparaíso  Valparaíso    18819.
    10 Marga Marga Villa Alemana  8704.
    # ℹ 1,422 more rows

También podemos seleccionar columnas de un determinado tipo. En este caso, seleccionamos solamente las variables que sean numéricas:

``` r
datos |> 
  select(where(is.numeric))
```

    # A tibble: 1,432 × 4
         cut hogares hectareas   area
       <dbl>   <dbl>     <dbl>  <dbl>
     1  5101      29     1.51  10617.
     2  5101      32     1.67  11707.
     3  5101      56     2.49  17465.
     4  5101      65     4.60  32261.
     5  5101      33     0.867  6081.
     6  5101      17     0.399  2802.
     7  5101      24     2.85  19955.
     8  5101      21     0.443  3103.
     9  5101      69     2.68  18819.
    10  5804      32     1.24   8704.
    # ℹ 1,422 more rows
…
Naturalmente, es posible realizar conteos por más de una variable, mostrando las combinaciones entre ambas:

``` r
datos |> 
  count(region, comuna) |> 
  arrange(desc(n))
```

    # A tibble: 195 × 3
       region       comuna            n
       <chr>        <chr>         <int>
     1 Valparaíso   Viña del Mar    114
     2 Valparaíso   Valparaíso       99
     3 Antofagasta  Antofagasta      87
     4 Atacama      Copiapó          82
     5 Tarapacá     Alto Hospicio    45
     6 La Araucanía Temuco           41
     7 Biobío       Talcahuano       32
     8 Valparaíso   Quilpué          32
     9 Biobío       Lota             30
    10 Valparaíso   San Antonio      27
    # ℹ 185 more rows

## Filtros

Podemos realizar una comparación sobre una columna del dataframe para filtrar las observaciones (filas), dejando solamente las filas que cumplen con la condición.

Por ejemplo, filtrar solamente los casos donde la cantidad de hogares sea mayor a 80:

``` r
datos |> 
  filter(hogares > 80)
```

    # A tibble: 239 × 12
       nombre     region provincia comuna cut_r cut_p   cut hogares hectareas   area
       <chr>      <chr>  <chr>     <chr>  <chr> <chr> <dbl>   <dbl>     <dbl>  <dbl>
     1 Ampliació… Valpa… Marga Ma… Villa… 05    058    5804     146     15.1  1.06e5
     2 Violeta P… Valpa… Valparaí… Valpa… 05    051    5101     123     10.7  7.50e4
     3 Mesana Al… Valpa… Valparaí… Valpa… 05    051    5101     128     14.5  1.02e5
     4 Pampa Ilu… Valpa… Valparaí… Valpa… 05    051    5101     195      7.04 4.93e4
     5 Parcela 11 Valpa… Valparaí… Viña … 05    051    5109     520     44.0  3.08e5
     6 Parcela 15 Valpa… Valparaí… Viña … 05    051    5109     257     15.4  1.08e5
     7 Campanill… Valpa… Valparaí… Valpa… 05    051    5101      98      6.19 4.34e4
     8 La Isla    Valpa… Valparaí… Valpa… 05    051    5101     116      4.51 3.16e4
     9 Nueva Aur… Valpa… Valparaí… Viña … 05    051    5109      91      7.47 5.24e4
    10 Valle El … Valpa… Valparaí… Viña … 05    051    5109     107      4.04 2.84e4
    # ℹ 229 more rows
    # ℹ 2 more variables: observaciones <chr>, año <chr>

``` r
datos |> 
  filter(region == "Ñuble")
```

    # A tibble: 24 × 12
       nombre     region provincia comuna cut_r cut_p   cut hogares hectareas   area
       <chr>      <chr>  <chr>     <chr>  <chr> <chr> <dbl>   <dbl>     <dbl>  <dbl>
     1 Los Corre… Ñuble  Diguillín Chill… 16    161   16101      13     0.250 1.61e3
     2 Línea Fér… Ñuble  Diguillín Chill… 16    161   16101      35     3.21  2.07e4
     3 Litral Co… Ñuble  Diguillín Chill… 16    161   16101      26     5.33  3.43e4
     4 Los Monte… Ñuble  Diguillín Chill… 16    161   16101      47     5.57  3.59e4
     5 Orilla It… Ñuble  Itata     Porte… 16    162   16205      11     1.41  9.07e3
     6 Pablo Ner… Ñuble  Itata     Quiri… 16    162   16201      39    22.7   1.47e5
     7 Esmeralda… Ñuble  Punilla   San N… 16    163   16305      13     0.232 1.50e3
     8 Santa Lau… Ñuble  Punilla   San N… 16    163   16305      22     8.28  5.34e4
     9 El Esfuer… Ñuble  Diguillín Bulnes 16    161   16102      11     0.632 4.05e3
    10 El Refugio Ñuble  Diguillín Bulnes 16    161   16102      16     1.11  7.10e3
    # ℹ 14 more rows
    # ℹ 2 more variables: observaciones <chr>, año <chr>
…
También es posible usar otros operadores dentro de las comparaciones, Tales como el operador *o* `|`, que en este caso nos va a permitir filtrar las observaciones que cumplan con una o con otra condición:

``` r
datos |> 
  filter(hogares > 300 | hectareas > 100)
```

    # A tibble: 33 × 12
       nombre     region provincia comuna cut_r cut_p   cut hogares hectareas   area
       <chr>      <chr>  <chr>     <chr>  <chr> <chr> <dbl>   <dbl>     <dbl>  <dbl>
     1 Parcela 11 Valpa… Valparaí… Viña … 05    051    5109     520      44.0 3.08e5
     2 Manuel Bu… Valpa… Valparaí… Viña … 05    051    5109    1647      90.2 6.33e5
     3 Reñaca Al… Valpa… Valparaí… Viña … 05    051    5109     663      39.1 2.75e5
     4 Felipe Ca… Valpa… Valparaí… Viña … 05    051    5109     669      37.0 2.59e5
     5 Yevide     Valpa… San Feli… San F… 05    057    5701     306      13.4 9.45e4
     6 Aguas Sal… Valpa… San Anto… San A… 05    056    5601     688      45.1 3.12e5
     7 Alto Mira… Valpa… San Anto… San A… 05    056    5601     560      47.7 3.30e5
     8 Centinela… Valpa… San Anto… San A… 05    056    5601     833     111.  7.69e5
     9 Fuerza Gu… Valpa… San Anto… Carta… 05    056    5603     342      16.5 1.14e5
    10 Vista Her… Valpa… San Anto… Carta… 05    056    5603     789      64.6 4.48e5
    # ℹ 23 more rows
    # ℹ 2 more variables: observaciones <chr>, año <chr>
…
