…
`{dplyr}` es un paquete parte del Tidyverse, que se usa para manipular datos a partir de funciones que emulan instrucciones sencillas, como *seleccionar, filtrar,* etc.

## Cargar datos

Antes que nada, debemos descargar el archivo que usaremos para el tutorial: [clic aquí para descargar el archivo Excel `censo_proyeccion_2024.xlsx`](https://raw.githubusercontent.com/bastianolea/censo_proyecciones_poblacion/refs/heads/main/datos_procesados/censo_proyeccion_2024.xlsx)

Importamos los datos que usaremos con la funcion `read_excel()`, cuyo argumento es el nombre del archivo. Asignamos el resultado a un objeto, y así tenemos nuetros datos de Excel cargados en R:

``` r
censo <- read_excel("censo_proyeccion_2024.xlsx") # cargar

censo # ver los datos de dataframe o tabla
```

    # A tibble: 346 × 7
       cut_region region      cut_provincia provincia   cut_comuna comuna  población
            <dbl> <chr>               <dbl> <chr>            <dbl> <chr>       <dbl>
     1          1 Tarapacá               11 Iquique           1101 Iquique    231962
     2          1 Tarapacá               11 Iquique           1107 Alto H…    143294
     3          1 Tarapacá               14 Tamarugal         1401 Pozo A…     18713
     4          1 Tarapacá               14 Tamarugal         1402 Camiña       1374
     5          1 Tarapacá               14 Tamarugal         1403 Colcha…      1558
     6          1 Tarapacá               14 Tamarugal         1404 Huara        3095
     7          1 Tarapacá               14 Tamarugal         1405 Pica         6291
     8          2 Antofagasta            21 Antofagasta       2101 Antofa…    444276
     9          2 Antofagasta            21 Antofagasta       2102 Mejill…     15877
    10          2 Antofagasta            21 Antofagasta       2103 Sierra…      1800
    # ℹ 336 more rows

Para ver más filas del dataframe, usamos la función `print()`:

``` r
print(censo, n = 20)
```

    # A tibble: 346 × 7
       cut_region region      cut_provincia provincia   cut_comuna comuna  población
            <dbl> <chr>               <dbl> <chr>            <dbl> <chr>       <dbl>
     1          1 Tarapacá               11 Iquique           1101 Iquique    231962
     2          1 Tarapacá               11 Iquique           1107 Alto H…    143294
     3          1 Tarapacá               14 Tamarugal         1401 Pozo A…     18713
     4          1 Tarapacá               14 Tamarugal         1402 Camiña       1374
     5          1 Tarapacá               14 Tamarugal         1403 Colcha…      1558
     6          1 Tarapacá               14 Tamarugal         1404 Huara        3095
     7          1 Tarapacá               14 Tamarugal         1405 Pica         6291
     8          2 Antofagasta            21 Antofagasta       2101 Antofa…    444276
     9          2 Antofagasta            21 Antofagasta       2102 Mejill…     15877
    10          2 Antofagasta            21 Antofagasta       2103 Sierra…      1800
    11          2 Antofagasta            21 Antofagasta       2104 Taltal      13967
    12          2 Antofagasta            22 El Loa            2201 Calama     196152
    13          2 Antofagasta            22 El Loa            2202 Ollagüe       269
    14          2 Antofagasta            22 El Loa            2203 San Pe…     11030
    15          2 Antofagasta            23 Tocopilla         2301 Tocopi…     28354
    16          2 Antofagasta            23 Tocopilla         2302 María …      6507
    17          3 Atacama                31 Copiapó           3101 Copiapó    176100
    18          3 Atacama                31 Copiapó           3102 Caldera     19964
    19          3 Atacama                31 Copiapó           3103 Tierra…     14431
    20          3 Atacama                32 Chañaral          3201 Chañar…     13017
    # ℹ 326 more rows

Ahora que tenemos nuestros datos cargados como un objeto en nuestro entorno de R, podemos empezar a manipularlo y explorarlo usando `{dplyr}`.

## Seleccionar columnas

La función `select()` selecciona columnas del dataframe.

``` r
censo |> # comando + shift + M
  select(comuna, población)
```

    # A tibble: 346 × 2
       comuna        población
       <chr>             <dbl>
     1 Iquique          231962
     2 Alto Hospicio    143294
     3 Pozo Almonte      18713
     4 Camiña             1374
     5 Colchane           1558
     6 Huara              3095
     7 Pica               6291
     8 Antofagasta      444276
     9 Mejillones        15877
    10 Sierra Gorda       1800
    # ℹ 336 more rows

El operador `|>` es un conector, y significa que *a este objeto le hago esto otro;* es decir, se lee como si dijera "luego" o "entonces". En este caso: *a `censo` le selecciono `comuna` y `población`.*

Podemos seleccionar negativamente; es decir, excluir ciertas columnas

``` r
censo |> 
  select(-cut_provincia, -cut_comuna, -cut_region)
```

    # A tibble: 346 × 4
       region      provincia   comuna        población
       <chr>       <chr>       <chr>             <dbl>
     1 Tarapacá    Iquique     Iquique          231962
     2 Tarapacá    Iquique     Alto Hospicio    143294
     3 Tarapacá    Tamarugal   Pozo Almonte      18713
     4 Tarapacá    Tamarugal   Camiña             1374
     5 Tarapacá    Tamarugal   Colchane           1558
     6 Tarapacá    Tamarugal   Huara              3095
     7 Tarapacá    Tamarugal   Pica               6291
     8 Antofagasta Antofagasta Antofagasta      444276
     9 Antofagasta Antofagasta Mejillones        15877
    10 Antofagasta Antofagasta Sierra Gorda       1800
    # ℹ 336 more rows

También podemos seleccionar columnas en base a sus nombres parciales:

``` r
censo |> 
  select(-contains("cut"))
```

    # A tibble: 346 × 4
       region      provincia   comuna        población
       <chr>       <chr>       <chr>             <dbl>
     1 Tarapacá    Iquique     Iquique          231962
     2 Tarapacá    Iquique     Alto Hospicio    143294
     3 Tarapacá    Tamarugal   Pozo Almonte      18713
     4 Tarapacá    Tamarugal   Camiña             1374
     5 Tarapacá    Tamarugal   Colchane           1558
     6 Tarapacá    Tamarugal   Huara              3095
     7 Tarapacá    Tamarugal   Pica               6291
     8 Antofagasta Antofagasta Antofagasta      444276
     9 Antofagasta Antofagasta Mejillones        15877
    10 Antofagasta Antofagasta Sierra Gorda       1800
    # ℹ 336 more rows

Selección de columnas por el numero de una columna (su posición):

``` r
censo |> 
  select(1:3, población)
```

    # A tibble: 346 × 4
       cut_region region      cut_provincia población
            <dbl> <chr>               <dbl>     <dbl>
     1          1 Tarapacá               11    231962
     2          1 Tarapacá               11    143294
     3          1 Tarapacá               14     18713
     4          1 Tarapacá               14      1374
     5          1 Tarapacá               14      1558
     6          1 Tarapacá               14      3095
     7          1 Tarapacá               14      6291
     8          2 Antofagasta            21    444276
     9          2 Antofagasta            21     15877
    10          2 Antofagasta            21      1800
    # ℹ 336 more rows

## Ordenar filas

Usamos la función `arrange()` para ordenar las filas de nuestros datos de acuerdo a otra variable:

``` r
censo |>
  arrange(población) |>
  select(comuna, población)
```

    # A tibble: 346 × 2
       comuna        población
       <chr>             <dbl>
     1 Antártica           151
     2 Río Verde           205
     3 Laguna Blanca       248
     4 Ollagüe             269
     5 Timaukel            276
     6 Tortel              585
     7 San Gregorio        651
     8 Primavera           674
     9 O'Higgins           675
    10 General Lagos       801
    # ℹ 336 more rows

Ordenar de mayor a menor:

``` r
censo |> 
  arrange(desc(población)) |> 
  select(region, comuna, población)
```

    # A tibble: 346 × 3
       region                    comuna       población
       <chr>                     <chr>            <dbl>
     1 Metropolitana de Santiago Puente Alto     667904
     2 Metropolitana de Santiago Maipú           586812
     3 Metropolitana de Santiago Santiago        544388
     4 Antofagasta               Antofagasta     444276
     5 Metropolitana de Santiago La Florida      407297
     6 Valparaíso                Viña del Mar    371490
     7 Metropolitana de Santiago San Bernardo    348640
     8 Metropolitana de Santiago Las Condes      343632
     9 Valparaíso                Valparaíso      320816
    10 La Araucanía              Temuco          309696
    # ℹ 336 more rows

Ordenar por dos variables a la vez

``` r
censo |> 
  arrange(region, desc(población)) |> 
  select(region, comuna, población) |> 
  print(n = 20)
```

    # A tibble: 346 × 3
       region             comuna               población
       <chr>              <chr>                    <dbl>
     1 Antofagasta        Antofagasta             444276
     2 Antofagasta        Calama                  196152
     3 Antofagasta        Tocopilla                28354
     4 Antofagasta        Mejillones               15877
     5 Antofagasta        Taltal                   13967
     6 Antofagasta        San Pedro de Atacama     11030
     7 Antofagasta        María Elena               6507
     8 Antofagasta        Sierra Gorda              1800
     9 Antofagasta        Ollagüe                    269
    10 Arica y Parinacota Arica                   257163
    11 Arica y Parinacota Putre                     2569
    12 Arica y Parinacota Camarones                 1246
    13 Arica y Parinacota General Lagos              801
    14 Atacama            Copiapó                 176100
    15 Atacama            Vallenar                 57360
    16 Atacama            Caldera                  19964
    17 Atacama            Tierra Amarilla          14431
    18 Atacama            Diego de Almagro         13909
    19 Atacama            Chañaral                 13017
    20 Atacama            Huasco                   11590
    # ℹ 326 more rows
…
    # A tibble: 1 × 7
      cut_region region          cut_provincia provincia cut_comuna comuna población
           <dbl> <chr>                   <dbl> <chr>          <dbl> <chr>      <dbl>
    1         13 Metropolitana …           131 Santiago       13123 Provi…    164009

Excluir las filas donde la columna sea "Alto Hospicio":

``` r
censo |> filter(comuna != "Alto Hospicio")
```

    # A tibble: 345 × 7
       cut_region region      cut_provincia provincia   cut_comuna comuna  población
            <dbl> <chr>               <dbl> <chr>            <dbl> <chr>       <dbl>
     1          1 Tarapacá               11 Iquique           1101 Iquique    231962
     2          1 Tarapacá               14 Tamarugal         1401 Pozo A…     18713
     3          1 Tarapacá               14 Tamarugal         1402 Camiña       1374
     4          1 Tarapacá               14 Tamarugal         1403 Colcha…      1558
     5          1 Tarapacá               14 Tamarugal         1404 Huara        3095
     6          1 Tarapacá               14 Tamarugal         1405 Pica         6291
     7          2 Antofagasta            21 Antofagasta       2101 Antofa…    444276
     8          2 Antofagasta            21 Antofagasta       2102 Mejill…     15877
     9          2 Antofagasta            21 Antofagasta       2103 Sierra…      1800
    10          2 Antofagasta            21 Antofagasta       2104 Taltal      13967
    # ℹ 335 more rows
…
    # A tibble: 1 × 4
      region                               comuna    provincia         población
      <chr>                                <chr>     <chr>                 <dbl>
    1 Magallanes y de la Antártica Chilena Antártica Antártica Chilena       151

Un caso más útil sería filtrar los casos donde la población sea mayor o igual al promedio de población:

``` r
censo |> 
  filter(población >= mean(población)) |> 
  select(region, comuna, provincia, población)
```

    # A tibble: 84 × 4
       region      comuna        provincia   población
       <chr>       <chr>         <chr>           <dbl>
     1 Tarapacá    Iquique       Iquique        231962
     2 Tarapacá    Alto Hospicio Iquique        143294
     3 Antofagasta Antofagasta   Antofagasta    444276
     4 Antofagasta Calama        El Loa         196152
     5 Atacama     Copiapó       Copiapó        176100
     6 Coquimbo    La Serena     Elqui          267400
     7 Coquimbo    Coquimbo      Elqui          275644
     8 Coquimbo    Ovalle        Limarí         124401
     9 Valparaíso  Valparaíso    Valparaíso     320816
    10 Valparaíso  Viña del Mar  Valparaíso     371490
    # ℹ 74 more rows
…
Del mismo modo, podemos filtrar usando la cifra del promedio de población:

``` r
promedio <- mean(censo$población)

censo |> 
  filter(población > promedio)
```

    # A tibble: 84 × 7
       cut_region region      cut_provincia provincia   cut_comuna comuna  población
            <dbl> <chr>               <dbl> <chr>            <dbl> <chr>       <dbl>
     1          1 Tarapacá               11 Iquique           1101 Iquique    231962
     2          1 Tarapacá               11 Iquique           1107 Alto H…    143294
     3          2 Antofagasta            21 Antofagasta       2101 Antofa…    444276
     4          2 Antofagasta            22 El Loa            2201 Calama     196152
     5          3 Atacama                31 Copiapó           3101 Copiapó    176100
     6          4 Coquimbo               41 Elqui             4101 La Ser…    267400
     7          4 Coquimbo               41 Elqui             4102 Coquim…    275644
     8          4 Coquimbo               43 Limarí            4301 Ovalle     124401
     9          5 Valparaíso             51 Valparaíso        5101 Valpar…    320816
    10          5 Valparaíso             51 Valparaíso        5109 Viña d…    371490
    # ℹ 74 more rows

## Seleccionar filas

Usamos `slice()` para seleccionar filas específicas del dataframe:

``` r
censo |> 
  slice(200:220) # filas del 200 al 220
```

    # A tibble: 21 × 7
       cut_region region       cut_provincia provincia  cut_comuna comuna  población
            <dbl> <chr>                <dbl> <chr>           <dbl> <chr>       <dbl>
     1          9 La Araucanía            92 Malleco          9205 Lonqui…     11109
     2          9 La Araucanía            92 Malleco          9206 Los Sa…      7468
     3          9 La Araucanía            92 Malleco          9207 Lumaco       9916
     4          9 La Araucanía            92 Malleco          9208 Purén       12103
     5          9 La Araucanía            92 Malleco          9209 Renaico     11002
     6          9 La Araucanía            92 Malleco          9210 Traigu…     19260
     7          9 La Araucanía            92 Malleco          9211 Victor…     35554
     8         10 Los Lagos              101 Llanquihue      10101 Puerto…    280955
     9         10 Los Lagos              101 Llanquihue      10102 Calbuco     37626
    10         10 Los Lagos              101 Llanquihue      10103 Cochamó      3947
    # ℹ 11 more rows
…
